^C:\USERS\ADMIN\SOURCE\REPOS\GDSTRUCTSW1\GDSTRUCTSW1.CPP
C:\USERS\ADMIN\SOURCE\REPOS\GDSTRUCTSW1\DEBUG\VC142.PDB
C:\USERS\ADMIN\SOURCE\REPOS\GDSTRUCTSW1\DEBUG\VC142.IDB
C:\USERS\ADMIN\SOURCE\REPOS\GDSTRUCTSW1\DEBUG\GDSTRUCTSW1.OBJ
