^C:\USERS\ADMIN\SOURCE\REPOS\GDSTRUCTMIDTERMS_ERNI\GDSTRUCTMIDTERMS_ERNI.CPP
C:\USERS\ADMIN\SOURCE\REPOS\GDSTRUCTMIDTERMS_ERNI\DEBUG\VC142.PDB
C:\USERS\ADMIN\SOURCE\REPOS\GDSTRUCTMIDTERMS_ERNI\DEBUG\VC142.IDB
C:\USERS\ADMIN\SOURCE\REPOS\GDSTRUCTMIDTERMS_ERNI\DEBUG\GDSTRUCTMIDTERMS_ERNI.OBJ
